%YAML 1.1
%TAG !u! tag:unity3d.com,2011:
--- !u!29 &1
OcclusionCullingSettings:
  m_ObjectHideFlags: 0
  serializedVersion: 2
  m_OcclusionBakeSettings:
    smallestOccluder: 5
    smallestHole: 0.25
    backfaceThreshold: 100
  m_SceneGUID: 00000000000000000000000000000000
  m_OcclusionCullingData: {fileID: 0}
--- !u!104 &2
RenderSettings:
  m_ObjectHideFlags: 0
  serializedVersion: 9
  m_Fog: 0
  m_FogColor: {r: 0.5, g: 0.5, b: 0.5, a: 1}
  m_FogMode: 3
  m_FogDensity: 0.01
  m_LinearFogStart: 0
  m_LinearFogEnd: 300
  m_AmbientSkyColor: {r: 0.212, g: 0.227, b: 0.259, a: 1}
  m_AmbientEquatorColor: {r: 0.114, g: 0.125, b: 0.133, a: 1}
  m_AmbientGroundColor: {r: 0.047, g: 0.043, b: 0.035, a: 1}
  m_AmbientIntensity: 1
  m_AmbientMode: 0
  m_SubtractiveShadowColor: {r: 0.42, g: 0.478, b: 0.627, a: 1}
  m_SkyboxMaterial: {fileID: 2100000, guid: ce2aeefce4213e34eaeeb19d17b4dd3c, type: 2}
  m_HaloStrength: 0.5
  m_FlareStrength: 1
  m_FlareFadeSpeed: 3
  m_HaloTexture: {fileID: 0}
  m_SpotCookie: {fileID: 10001, guid: 0000000000000000e000000000000000, type: 0}
  m_DefaultReflectionMode: 0
  m_DefaultReflectionResolution: 128
  m_ReflectionBounces: 1
  m_ReflectionIntensity: 1
  m_CustomReflection: {fileID: 0}
  m_Sun: {fileID: 0}
  m_IndirectSpecularColor: {r: 0, g: 0, b: 0, a: 1}
  m_UseRadianceAmbientProbe: 0
--- !u!157 &3
LightmapSettings:
  m_ObjectHideFlags: 0
  serializedVersion: 12
  m_GIWorkflowMode: 0
  m_GISettings:
    serializedVersion: 2
    m_BounceScale: 1
    m_IndirectOutputScale: 1
    m_AlbedoBoost: 1
    m_EnvironmentLightingMode: 0
    m_EnableBakedLightmaps: 1
    m_EnableRealtimeLightmaps: 1
  m_LightmapEditorSettings:
    serializedVersion: 12
    m_Resolution: 2
    m_BakeResolution: 40
    m_AtlasSize: 1024
    m_AO: 0
    m_AOMaxDistance: 1
    m_CompAOExponent: 0
    m_CompAOExponentDirect: 0
    m_ExtractAmbientOcclusion: 0
    m_Padding: 2
    m_LightmapParameters: {fileID: 0}
    m_LightmapsBakeMode: 1
    m_TextureCompression: 1
    m_FinalGather: 0
    m_FinalGatherFiltering: 1
    m_FinalGatherRayCount: 1024
    m_ReflectionCompression: 2
    m_MixedBakeMode: 1
    m_BakeBackend: 0
    m_PVRSampling: 1
    m_PVRDirectSampleCount: 32
    m_PVRSampleCount: 512
    m_PVRBounces: 2
    m_PVREnvironmentSampleCount: 512
    m_PVREnvironmentReferencePointCount: 2048
    m_PVRFilteringMode: 0
    m_PVRDenoiserTypeDirect: 0
    m_PVRDenoiserTypeIndirect: 0
    m_PVRDenoiserTypeAO: 0
    m_PVRFilterTypeDirect: 0
    m_PVRFilterTypeIndirect: 0
    m_PVRFilterTypeAO: 0
    m_PVREnvironmentMIS: 0
    m_PVRCulling: 1
    m_PVRFilteringGaussRadiusDirect: 1
    m_PVRFilteringGaussRadiusIndirect: 5
    m_PVRFilteringGaussRadiusAO: 2
    m_PVRFilteringAtrousPositionSigmaDirect: 0.5
    m_PVRFilteringAtrousPositionSigmaIndirect: 2
    m_PVRFilteringAtrousPositionSigmaAO: 1
    m_ExportTrainingData: 0
    m_TrainingDataDestination: TrainingData
    m_LightProbeSampleCountMultiplier: 4
  m_LightingDataAsset: {fileID: 0}
  m_LightingSettings: {fileID: 4890085278179872738, guid: ab517d2af3f392041a897509cb96c2ed, type: 2}
--- !u!196 &4
NavMeshSettings:
  serializedVersion: 2
  m_ObjectHideFlags: 0
  m_BuildSettings:
    serializedVersion: 2
    agentTypeID: 0
    agentRadius: 0.5
    agentHeight: 2
    agentSlope: 45
    agentClimb: 0.4
    ledgeDropHeight: 0
    maxJumpAcrossDistance: 0
    minRegionArea: 2
    manualCellSize: 0
    cellSize: 0.16666667
    manualTileSize: 0
    tileSize: 256
    accuratePlacement: 0
    maxJobWorkers: 0
    preserveTilesOutsideBounds: 0
    debug:
      m_Flags: 0
  m_NavMeshData: {fileID: 0}
--- !u!1001 &451151842
PrefabInstance:
  m_ObjectHideFlags: 0
  serializedVersion: 2
  m_Modification:
    m_TransformParent: {fileID: 0}
    m_Modifications:
    - target: {fileID: 129576, guid: fa1d28cf8ddec4848a57e054036e1dac, type: 3}
      propertyPath: m_IsActive
      value: 1
      objectReference: {fileID: 0}
    - target: {fileID: 485872, guid: fa1d28cf8ddec4848a57e054036e1dac, type: 3}
      propertyPath: m_RootOrder
      value: 0
      objectReference: {fileID: 0}
    - target: {fileID: 485872, guid: fa1d28cf8ddec4848a57e054036e1dac, type: 3}
      propertyPath: m_LocalPosition.x
      value: 20.59
      objectReference: {fileID: 0}
    - target: {fileID: 485872, guid: fa1d28cf8ddec4848a57e054036e1dac, type: 3}
      propertyPath: m_LocalPosition.y
      value: 12.06
      objectReference: {fileID: 0}
    - target: {fileID: 485872, guid: fa1d28cf8ddec4848a57e054036e1dac, type: 3}
      propertyPath: m_LocalPosition.z
      value: -14.61
      objectReference: {fileID: 0}
    - target: {fileID: 485872, guid: fa1d28cf8ddec4848a57e054036e1dac, type: 3}
      propertyPath: m_LocalRotation.w
      value: 0.8604002
      objectReference: {fileID: 0}
    - target: {fileID: 485872, guid: fa1d28cf8ddec4848a57e054036e1dac, type: 3}
      propertyPath: m_LocalRotation.x
      value: 0.22314394
      objectReference: {fileID: 0}
    - target: {fileID: 485872, guid: fa1d28cf8ddec4848a57e054036e1dac, type: 3}
      propertyPath: m_LocalRotation.y
      value: -0.4434959
      objectReference: {fileID: 0}
    - target: {fileID: 485872, guid: fa1d28cf8ddec4848a57e054036e1dac, type: 3}
      propertyPath: m_LocalRotation.z
      value: 0.115020216
      objectReference: {fileID: 0}
    - target: {fileID: 485872, guid: fa1d28cf8ddec4848a57e054036e1dac, type: 3}
      propertyPath: m_LocalEulerAnglesHint.x
      value: 29.078499
      objectReference: {fileID: 0}
    - target: {fileID: 485872, guid: fa1d28cf8ddec4848a57e054036e1dac, type: 3}
      propertyPath: m_LocalEulerAnglesHint.y
      value: -54.538
      objectReference: {fileID: 0}
    - target: {fileID: 11403970, guid: fa1d28cf8ddec4848a57e054036e1dac, type: 3}
      propertyPath: m_Enabled
      value: 1
      objectReference: {fileID: 0}
    m_RemovedComponents: []
  m_SourcePrefab: {fileID: 100100000, guid: fa1d28cf8ddec4848a57e054036e1dac, type: 3}
--- !u!1001 &654521341
PrefabInstance:
  m_ObjectHideFlags: 0
  serializedVersion: 2
  m_Modification:
    m_TransformParent: {fileID: 0}
    m_Modifications:
    - target: {fileID: 408908, guid: e882af2610b8b8240b4e9884f74c860a, type: 3}
      propertyPath: m_RootOrder
      value: 1
      objectReference: {fileID: 0}
    - target: {fileID: 408908, guid: e882af2610b8b8240b4e9884f74c860a, type: 3}
      propertyPath: m_LocalPosition.x
      value: 0
      objectReference: {fileID: 0}
    - target: {fileID: 408908, guid: e882af2610b8b8240b4e9884f74c860a, type: 3}
      propertyPath: m_LocalPosition.y
      value: 8.88
      objectReference: {fileID: 0}
    - target: {fileID: 408908, guid: e882af2610b8b8240b4e9884f74c860a, type: 3}
      propertyPath: m_LocalPosition.z
      value: 0
      objectReference: {fileID: 0}
    - target: {fileID: 408908, guid: e882af2610b8b8240b4e9884f74c860a, type: 3}
      propertyPath: m_LocalRotation.w
      value: 0.90592
      objectReference: {fileID: 0}
    - target: {fileID: 408908, guid: e882af2610b8b8240b4e9884f74c860a, type: 3}
      propertyPath: m_LocalRotation.x
      value: 0.42243734
      objectReference: {fileID: 0}
    - target: {fileID: 408908, guid: e882af2610b8b8240b4e9884f74c860a, type: 3}
      propertyPath: m_LocalRotation.y
      value: 0.026510712
      objectReference: {fileID: 0}
    - target: {fileID: 408908, guid: e882af2610b8b8240b4e9884f74c860a, type: 3}
      propertyPath: m_LocalRotation.z
      value: -0.012362135
      objectReference: {fileID: 0}
    m_RemovedComponents: []
  m_SourcePrefab: {fileID: 100100000, guid: e882af2610b8b8240b4e9884f74c860a, type: 3}
--- !u!1001 &944404007
PrefabInstance:
  m_ObjectHideFlags: 0
  serializedVersion: 2
  m_Modification:
    m_TransformParent: {fileID: 0}
    m_Modifications:
    - target: {fileID: 417608, guid: 07fc91084213d9a4e816125c3a32450d, type: 3}
      propertyPath: m_RootOrder
      value: 5
      objectReference: {fileID: 0}
    - target: {fileID: 417608, guid: 07fc91084213d9a4e816125c3a32450d, type: 3}
      propertyPath: m_LocalPosition.x
      value: 0
      objectReference: {fileID: 0}
    - target: {fileID: 417608, guid: 07fc91084213d9a4e816125c3a32450d, type: 3}
      propertyPath: m_LocalPosition.y
      value: 1
      objectReference: {fileID: 0}
    - target: {fileID: 417608, guid: 07fc91084213d9a4e816125c3a32450d, type: 3}
      propertyPath: m_LocalPosition.z
      value: -8.1
      objectReference: {fileID: 0}
    - target: {fileID: 417608, guid: 07fc91084213d9a4e816125c3a32450d, type: 3}
      propertyPath: m_LocalRotation.w
      value: 0.7071067
      objectReference: {fileID: 0}
    - target: {fileID: 417608, guid: 07fc91084213d9a4e816125c3a32450d, type: 3}
      propertyPath: m_LocalRotation.x
      value: 0
      objectReference: {fileID: 0}
    - target: {fileID: 417608, guid: 07fc91084213d9a4e816125c3a32450d, type: 3}
      propertyPath: m_LocalRotation.y
      value: 0.7071068
      objectReference: {fileID: 0}
    - target: {fileID: 417608, guid: 07fc91084213d9a4e816125c3a32450d, type: 3}
      propertyPath: m_LocalRotation.z
      value: 0
      objectReference: {fileID: 0}
    m_RemovedComponents: []
  m_SourcePrefab: {fileID: 100100000, guid: 07fc91084213d9a4e816125c3a32450d, type: 3}
--- !u!1001 &1290085823
PrefabInstance:
  m_ObjectHideFlags: 0
  serializedVersion: 2
  m_Modification:
    m_TransformParent: {fileID: 0}
    m_Modifications:
    - target: {fileID: 461266, guid: 1e5c0fff22491194b8556da18347cc50, type: 3}
      propertyPath: m_RootOrder
      value: 8
      objectReference: {fileID: 0}
    - target: {fileID: 461266, guid: 1e5c0fff22491194b8556da18347cc50, type: 3}
      propertyPath: m_LocalPosition.x
      value: 0
      objectReference: {fileID: 0}
    - target: {fileID: 461266, guid: 1e5c0fff22491194b8556da18347cc50, type: 3}
      propertyPath: m_LocalPosition.y
      value: 1
      objectReference: {fileID: 0}
    - target: {fileID: 461266, guid: 1e5c0fff22491194b8556da18347cc50, type: 3}
      propertyPath: m_LocalPosition.z
      value: 0
      objectReference: {fileID: 0}
    - target: {fileID: 461266, guid: 1e5c0fff22491194b8556da18347cc50, type: 3}
      propertyPath: m_LocalRotation.w
      value: 0.7071067
      objectReference: {fileID: 0}
    - target: {fileID: 461266, guid: 1e5c0fff22491194b8556da18347cc50, type: 3}
      propertyPath: m_LocalRotation.x
      value: 0
      objectReference: {fileID: 0}
    - target: {fileID: 461266, guid: 1e5c0fff22491194b8556da18347cc50, type: 3}
      propertyPath: m_LocalRotation.y
      value: 0.7071068
      objectReference: {fileID: 0}
    - target: {fileID: 461266, guid: 1e5c0fff22491194b8556da18347cc50, type: 3}
      propertyPath: m_LocalRotation.z
      value: 0
      objectReference: {fileID: 0}
    m_RemovedComponents: []
  m_SourcePrefab: {fileID: 100100000, guid: 1e5c0fff22491194b8556da18347cc50, type: 3}
--- !u!1001 &1402751080
PrefabInstance:
  m_ObjectHideFlags: 0
  serializedVersion: 2
  m_Modification:
    m_TransformParent: {fileID: 0}
    m_Modifications:
    - target: {fileID: 488268, guid: e7298a3a55795d74d95723db751f8562, type: 3}
      propertyPath: m_RootOrder
      value: 2
      objectReference: {fileID: 0}
    - target: {fileID: 488268, guid: e7298a3a55795d74d95723db751f8562, type: 3}
      propertyPath: m_LocalScale.x
      value: 40
      objectReference: {fileID: 0}
    - target: {fileID: 488268, guid: e7298a3a55795d74d95723db751f8562, type: 3}
      propertyPath: m_LocalScale.y
      value: 40
      objectReference: {fileID: 0}
    - target: {fileID: 488268, guid: e7298a3a55795d74d95723db751f8562, type: 3}
      propertyPath: m_LocalScale.z
      value: 40
      objectReference: {fileID: 0}
    - target: {fileID: 488268, guid: e7298a3a55795d74d95723db751f8562, type: 3}
      propertyPath: m_LocalPosition.x
      value: 0
      objectReference: {fileID: 0}
    - target: {fileID: 488268, guid: e7298a3a55795d74d95723db751f8562, type: 3}
      propertyPath: m_LocalPosition.y
      value: 0
      objectReference: {fileID: 0}
    - target: {fileID: 488268, guid: e7298a3a55795d74d95723db751f8562, type: 3}
      propertyPath: m_LocalPosition.z
      value: 0
      objectReference: {fileID: 0}
    - target: {fileID: 488268, guid: e7298a3a55795d74d95723db751f8562, type: 3}
      propertyPath: m_LocalRotation.w
      value: 0.7071067
      objectReference: {fileID: 0}
    - target: {fileID: 488268, guid: e7298a3a55795d74d95723db751f8562, type: 3}
      propertyPath: m_LocalRotation.x
      value: 0.7071068
      objectReference: {fileID: 0}
    - target: {fileID: 488268, guid: e7298a3a55795d74d95723db751f8562, type: 3}
      propertyPath: m_LocalRotation.y
      value: 0
      objectReference: {fileID: 0}
    - target: {fileID: 488268, guid: e7298a3a55795d74d95723db751f8562, type: 3}
      propertyPath: m_LocalRotation.z
      value: 0
      objectReference: {fileID: 0}
    m_RemovedComponents: []
  m_SourcePrefab: {fileID: 100100000, guid: e7298a3a55795d74d95723db751f8562, type: 3}
--- !u!1001 &1553702167
PrefabInstance:
  m_ObjectHideFlags: 0
  serializedVersion: 2
  m_Modification:
    m_TransformParent: {fileID: 0}
    m_Modifications:
    - target: {fileID: 451070, guid: 7a59dbad522a0e443afbd995ada3fa01, type: 3}
      propertyPath: m_RootOrder
      value: 7
      objectReference: {fileID: 0}
    - target: {fileID: 451070, guid: 7a59dbad522a0e443afbd995ada3fa01, type: 3}
      propertyPath: m_LocalPosition.x
      value: 0
      objectReference: {fileID: 0}
    - target: {fileID: 451070, guid: 7a59dbad522a0e443afbd995ada3fa01, type: 3}
      propertyPath: m_LocalPosition.y
      value: 1
      objectReference: {fileID: 0}
    - target: {fileID: 451070, guid: 7a59dbad522a0e443afbd995ada3fa01, type: 3}
      propertyPath: m_LocalPosition.z
      value: -2.88
      objectReference: {fileID: 0}
    - target: {fileID: 451070, guid: 7a59dbad522a0e443afbd995ada3fa01, type: 3}
      propertyPath: m_LocalRotation.w
      value: 0.7071067
      objectReference: {fileID: 0}
    - target: {fileID: 451070, guid: 7a59dbad522a0e443afbd995ada3fa01, type: 3}
      propertyPath: m_LocalRotation.x
      value: 0
      objectReference: {fileID: 0}
    - target: {fileID: 451070, guid: 7a59dbad522a0e443afbd995ada3fa01, type: 3}
      propertyPath: m_LocalRotation.y
      value: 0.7071068
      objectReference: {fileID: 0}
    - target: {fileID: 451070, guid: 7a59dbad522a0e443afbd995ada3fa01, type: 3}
      propertyPath: m_LocalRotation.z
      value: 0
      objectReference: {fileID: 0}
    m_RemovedComponents: []
  m_SourcePrefab: {fileID: 100100000, guid: 7a59dbad522a0e443afbd995ada3fa01, type: 3}
--- !u!1001 &1561602514
PrefabInstance:
  m_ObjectHideFlags: 0
  serializedVersion: 2
  m_Modification:
    m_TransformParent: {fileID: 0}
    m_Modifications:
    - target: {fileID: 436072, guid: c61aff177c1321f48af9c768f079859b, type: 3}
      propertyPath: m_RootOrder
      value: 3
      objectReference: {fileID: 0}
    - target: {fileID: 436072, guid: c61aff177c1321f48af9c768f079859b, type: 3}
      propertyPath: m_LocalPosition.x
      value: 0
      objectReference: {fileID: 0}
    - target: {fileID: 436072, guid: c61aff177c1321f48af9c768f079859b, type: 3}
      propertyPath: m_LocalPosition.y
      value: 1
      objectReference: {fileID: 0}
    - target: {fileID: 436072, guid: c61aff177c1321f48af9c768f079859b, type: 3}
      propertyPath: m_LocalPosition.z
      value: -14.28
      objectReference: {fileID: 0}
    - target: {fileID: 436072, guid: c61aff177c1321f48af9c768f079859b, type: 3}
      propertyPath: m_LocalRotation.w
      value: 0.7071067
      objectReference: {fileID: 0}
    - target: {fileID: 436072, guid: c61aff177c1321f48af9c768f079859b, type: 3}
      propertyPath: m_LocalRotation.x
      value: 0
      objectReference: {fileID: 0}
    - target: {fileID: 436072, guid: c61aff177c1321f48af9c768f079859b, type: 3}
      propertyPath: m_LocalRotation.y
      value: 0.7071068
      objectReference: {fileID: 0}
    - target: {fileID: 436072, guid: c61aff177c1321f48af9c768f079859b, type: 3}
      propertyPath: m_LocalRotation.z
      value: 0
      objectReference: {fileID: 0}
    m_RemovedComponents: []
  m_SourcePrefab: {fileID: 100100000, guid: c61aff177c1321f48af9c768f079859b, type: 3}
--- !u!1001 &1567061068
PrefabInstance:
  m_ObjectHideFlags: 0
  serializedVersion: 2
  m_Modification:
    m_TransformParent: {fileID: 0}
    m_Modifications:
    - target: {fileID: 430284, guid: ac442fd7a0bbbec42910ecf3b43e7548, type: 3}
      propertyPath: m_RootOrder
      value: 4
      objectReference: {fileID: 0}
    - target: {fileID: 430284, guid: ac442fd7a0bbbec42910ecf3b43e7548, type: 3}
      propertyPath: m_LocalPosition.x
      value: 0
      objectReference: {fileID: 0}
    - target: {fileID: 430284, guid: ac442fd7a0bbbec42910ecf3b43e7548, type: 3}
      propertyPath: m_LocalPosition.y
      value: 1
      objectReference: {fileID: 0}
    - target: {fileID: 430284, guid: ac442fd7a0bbbec42910ecf3b43e7548, type: 3}
      propertyPath: m_LocalPosition.z
      value: -11.19
      objectReference: {fileID: 0}
    - target: {fileID: 430284, guid: ac442fd7a0bbbec42910ecf3b43e7548, type: 3}
      propertyPath: m_LocalRotation.w
      value: 0.7071067
      objectReference: {fileID: 0}
    - target: {fileID: 430284, guid: ac442fd7a0bbbec42910ecf3b43e7548, type: 3}
      propertyPath: m_LocalRotation.x
      value: 0
      objectReference: {fileID: 0}
    - target: {fileID: 430284, guid: ac442fd7a0bbbec42910ecf3b43e7548, type: 3}
      propertyPath: m_LocalRotation.y
      value: 0.7071068
      objectReference: {fileID: 0}
    - target: {fileID: 430284, guid: ac442fd7a0bbbec42910ecf3b43e7548, type: 3}
      propertyPath: m_LocalRotation.z
      value: 0
      objectReference: {fileID: 0}
    m_RemovedComponents: []
  m_SourcePrefab: {fileID: 100100000, guid: ac442fd7a0bbbec42910ecf3b43e7548, type: 3}
--- !u!1001 &1725527813
PrefabInstance:
  m_ObjectHideFlags: 0
  serializedVersion: 2
  m_Modification:
    m_TransformParent: {fileID: 0}
    m_Modifications:
    - target: {fileID: 422830, guid: 9a5fb82b90aeeed449cc9e1a5ca2ac29, type: 3}
      propertyPath: m_RootOrder
      value: 6
      objectReference: {fileID: 0}
    - target: {fileID: 422830, guid: 9a5fb82b90aeeed449cc9e1a5ca2ac29, type: 3}
      propertyPath: m_LocalPosition.x
      value: 0
      objectReference: {fileID: 0}
    - target: {fileID: 422830, guid: 9a5fb82b90aeeed449cc9e1a5ca2ac29, type: 3}
      propertyPath: m_LocalPosition.y
      value: 1
      objectReference: {fileID: 0}
    - target: {fileID: 422830, guid: 9a5fb82b90aeeed449cc9e1a5ca2ac29, type: 3}
      propertyPath: m_LocalPosition.z
      value: -5.42
      objectReference: {fileID: 0}
    - target: {fileID: 422830, guid: 9a5fb82b90aeeed449cc9e1a5ca2ac29, type: 3}
      propertyPath: m_LocalRotation.w
      value: 0.7071067
      objectReference: {fileID: 0}
    - target: {fileID: 422830, guid: 9a5fb82b90aeeed449cc9e1a5ca2ac29, type: 3}
      propertyPath: m_LocalRotation.x
      value: 0
      objectReference: {fileID: 0}
    - target: {fileID: 422830, guid: 9a5fb82b90aeeed449cc9e1a5ca2ac29, type: 3}
      propertyPath: m_LocalRotation.y
      value: 0.7071068
      objectReference: {fileID: 0}
    - target: {fileID: 422830, guid: 9a5fb82b90aeeed449cc9e1a5ca2ac29, type: 3}
      propertyPath: m_LocalRotation.z
      value: 0
      objectReference: {fileID: 0}
    m_RemovedComponents: []
  m_SourcePrefab: {fileID: 100100000, guid: 9a5fb82b90aeeed449cc9e1a5ca2ac29, type: 3}
